2020 - Question 1 - Supply Date and Age Grouping
…
"

library("RPostgreSQL")
con <- dbConnect(dbDriver("PostgreSQL"), 
                 dbname   = 'pbs_sample',
                  host = "himsql7.latrobe.edu.au", port = 5432,
                 user = "dewollershei-test", password = "healthGuru")

prescriptions <- dbGetQuery( con, query )   %>% as.tibble() 
prescriptions

# A tibble: 38,788 x 4
   pin           yob sex   supply_date
   <chr>       <int> <chr> <date>     
 1 06899756225  1953 F     2011-03-25 
 2 03539542487  1953 M     2011-03-10 
 3 08777031685  1938 M     2011-11-25 
 4 03695085043  1969 M     2011-08-13 
 5 01673827540  1944 M     2011-01-19 
 6 07044991056  1947 M     2011-04-07 
 7 09496808571  1939 M     2011-11-19 
 8 02349907145  1948 F     2011-06-09 
 9 06650470328  1958 F     2011-07-24 
10 03695085043  1969 M     2011-07-20 
# … with 38,778 more rows
…
The following objects are masked from 'package:base':

    date, intersect, setdiff, union

person_age_at_first_drug <- 
  prescriptions %>%
    group_by( pin, yob ) %>%
    summarise( min_year = min( year( supply_date ))) %>%
    mutate( age_at_first_drug = min_year - yob)  %>%
    mutate( age_group = cut( age_at_first_drug, breaks=0:11*10 ))

person_age_at_first_drug

# A tibble: 1,227 x 5
# Groups:   pin [1,227]
   pin           yob min_year age_at_first_drug age_group
   <chr>       <int>    <dbl>             <dbl> <fct>    
 1 00000072038  1960     2008                48 (40,50]  
 2 00005888880  1932     2003                71 (70,80]  
 3 00021586775  1949     2006                57 (50,60]  
 4 00026334260  1952     2005                53 (50,60]  
 5 00037697753  1953     2012                59 (50,60]  
 6 00059280489  1960     2012                52 (50,60]  
 7 00060351262  1945     2006                61 (60,70]  
 8 00077731912  1951     2005                54 (50,60]  
 9 00077839018  1994     2011                17 (10,20]  
10 00092760238  1973     2010                37 (30,40]  
# … with 1,217 more rows
…
Bonus: Renaming cut labels

You also asked how to rename cut labels.

If you want to relabel the default cuts, you probably need to type them out:

my_labels = c("0-9", "10-19", "20-29", "30-39", "40-49", "50-59", "60-69", "70-79", "80-89", "90-99", "100-109")

person_age_at_first_drug %>%
  mutate( age_group = cut( age_at_first_drug, breaks=0:11*10, labels=my_labels ))

# A tibble: 1,227 x 5
# Groups:   pin [1,227]
   pin           yob min_year age_at_first_drug age_group
   <chr>       <int>    <dbl>             <dbl> <fct>    
 1 00000072038  1960     2008                48 40-49    
 2 00005888880  1932     2003                71 70-79    
 3 00021586775  1949     2006                57 50-59    
 4 00026334260  1952     2005                53 50-59    
 5 00037697753  1953     2012                59 50-59    
 6 00059280489  1960     2012                52 50-59    
 7 00060351262  1945     2006                61 60-69    
 8 00077731912  1951     2005                54 50-59    
 9 00077839018  1994     2011                17 10-19    
10 00092760238  1973     2010                37 30-39    
# … with 1,217 more rows
…
