How to approach obscure error messages
…
It assigns all admissions as ‘No HAC’ What happened here?

Anthea

My answer

Let’s investigate: what is in bypass1?

bypass1 

# A tibble: 3,581 x 2
   admission_id hac   
          <int> <chr> 
 1     21000825 No HAC
 2     21000915 No HAC
 3     21000972 No HAC
 4     21000976 No HAC
 5     21001102 No HAC
 6     21001128 No HAC
 7     21001242 No HAC
 8     21001322 No HAC
 9     21001326 No HAC
10     21001398 No HAC
# … with 3,571 more rows
…
