How to approach obscure error messages
…
Renaming a field

Very good!

I like how you figured out how to rename the column name in your tibble from birth_year to age.

colnames(firstFitted_ind_state)[colnames(firstFitted_ind_state)=="birth_year"] <-"age"

I like to use tidyverse and pipes for that, for example:

read_excel("firstFitted_ind_state.xlsx")  %>%
  rename( age = birth_year )

# A tibble: 27 x 10
   age     NSW   VIC   QLD    WA    SA   TAS   ACT    NT National
   <chr> <dbl> <dbl> <dbl> <dbl> <dbl> <dbl> <dbl> <dbl>    <dbl>
 1 1992      4     0     8     1     5     0     0    11       29
 2 1993      2     1     6     1     1     0     0    10       21
 3 1994      7     0     4     5     1     1     0     7       25
 4 1995      7     1    15     0     1     1     0    12       37
 5 1996      5     1     4     1     0     0     1    17       29
 6 1997     15     3    10     4     6     0     0     9       47
 7 1998     16     3    11    12     3     1     1     4       51
 8 1999     23     6     9    13     2     0     0    10       63
 9 2000     17     4    25    14     3     2     0    18       83
10 2001     20     3    27    24    13     0     1    15      103
# … with 17 more rows

changing a field

Instead of changing birth_date, I would create an additional age field.

read_excel("firstFitted_ind_state.xlsx")  %>%
  mutate( age = 2017 - birth_year )

Error: Evaluation error: non-numeric argument to binary operator.

We get the same error. The most important word here is non-numeric. We are trying to do something to the birth_year column. Looking at the input tibble:

read_excel("firstFitted_ind_state.xlsx" )

# A tibble: 27 x 10
   birth_year   NSW   VIC   QLD    WA    SA   TAS   ACT    NT National
   <chr>      <dbl> <dbl> <dbl> <dbl> <dbl> <dbl> <dbl> <dbl>    <dbl>
 1 1992           4     0     8     1     5     0     0    11       29
 2 1993           2     1     6     1     1     0     0    10       21
 3 1994           7     0     4     5     1     1     0     7       25
 4 1995           7     1    15     0     1     1     0    12       37
 5 1996           5     1     4     1     0     0     1    17       29
 6 1997          15     3    10     4     6     0     0     9       47
 7 1998          16     3    11    12     3     1     1     4       51
 8 1999          23     6     9    13     2     0     0    10       63
 9 2000          17     4    25    14     3     2     0    18       83
10 2001          20     3    27    24    13     0     1    15      103
# … with 17 more rows

birth_year is as a <chr> type This is reason for the error, because you cannot do math with character values. Convert birth_date to a numeric before calculating.

read_excel("firstFitted_ind_state.xlsx")  %>%
  mutate( age = 2017 - as.numeric( birth_year ))

Warning: NAs introduced by coercion

# A tibble: 27 x 11
   birth_year   NSW   VIC   QLD    WA    SA   TAS   ACT    NT National   age
   <chr>      <dbl> <dbl> <dbl> <dbl> <dbl> <dbl> <dbl> <dbl>    <dbl> <dbl>
 1 1992           4     0     8     1     5     0     0    11       29    25
 2 1993           2     1     6     1     1     0     0    10       21    24
 3 1994           7     0     4     5     1     1     0     7       25    23
 4 1995           7     1    15     0     1     1     0    12       37    22
 5 1996           5     1     4     1     0     0     1    17       29    21
 6 1997          15     3    10     4     6     0     0     9       47    20
 7 1998          16     3    11    12     3     1     1     4       51    19
 8 1999          23     6     9    13     2     0     0    10       63    18
 9 2000          17     4    25    14     3     2     0    18       83    17
10 2001          20     3    27    24    13     0     1    15      103    16
# … with 17 more rows

This creates your age column, but the warning points to the actual problem, the reason that the column was classified as character in the first place. There is some data that is not numeric.

Searching for problematic values in birth_date

The first 10 birth_year all look like numbers, so the character data must be somewhere else. We could View it to find the error, or look at the distinct values, or arrange it ascending or descending.

read_excel("firstFitted_ind_state.xlsx" ) %>%
  distinct( birth_year )

# A tibble: 27 x 1
   birth_year
   <chr>     
 1 1992      
 2 1993      
 3 1994      
 4 1995      
 5 1996      
 6 1997      
 7 1998      
 8 1999      
 9 2000      
10 2001      
# … with 17 more rows

read_excel("firstFitted_ind_state.xlsx" ) %>%
  arrange( birth_year )

# A tibble: 27 x 10
   birth_year   NSW   VIC   QLD    WA    SA   TAS   ACT    NT National
   <chr>      <dbl> <dbl> <dbl> <dbl> <dbl> <dbl> <dbl> <dbl>    <dbl>
 1 1992           4     0     8     1     5     0     0    11       29
 2 1993           2     1     6     1     1     0     0    10       21
 3 1994           7     0     4     5     1     1     0     7       25
 4 1995           7     1    15     0     1     1     0    12       37
 5 1996           5     1     4     1     0     0     1    17       29
 6 1997          15     3    10     4     6     0     0     9       47
 7 1998          16     3    11    12     3     1     1     4       51
 8 1999          23     6     9    13     2     0     0    10       63
 9 2000          17     4    25    14     3     2     0    18       83
10 2001          20     3    27    24    13     0     1    15      103
# … with 17 more rows

read_excel("firstFitted_ind_state.xlsx" ) %>%
  arrange( desc( birth_year ))

# A tibble: 27 x 10
   birth_year   NSW   VIC   QLD    WA    SA   TAS   ACT    NT National
   <chr>      <dbl> <dbl> <dbl> <dbl> <dbl> <dbl> <dbl> <dbl>    <dbl>
 1 Total        390    74   747   334   118    14    13   574     2264
 2 2017           3     0     2     2     0     0     0     3       10
 3 2016           7     0    12     6     1     1     1     3       31
 4 2015           8     1    12     4     0     0     1    11       37
 5 2014           9     2    25    11     0     0     1    13       61
 6 2013           9     2    30    11     5     0     0    14       71
 7 2012          15     1    37    17     0     0     1    37      108
 8 2011          17     3    56    24     7     1     1    57      166
 9 2010          14     5    52    19     4     0     1    49      144
10 2009          19     6    54    24    10     0     0    63      176
# … with 17 more rows

Filtering out the problem rows

The last row, with the Total birth_year value, is causing the problem. Let’s filter it out, and try again:

read_excel("firstFitted_ind_state.xlsx")  %>%
  filter( birth_year != 'Total' ) %>%
  mutate( age = 2017 - as.numeric( birth_year ))

# A tibble: 26 x 11
   birth_year   NSW   VIC   QLD    WA    SA   TAS   ACT    NT National   age
   <chr>      <dbl> <dbl> <dbl> <dbl> <dbl> <dbl> <dbl> <dbl>    <dbl> <dbl>
 1 1992           4     0     8     1     5     0     0    11       29    25
 2 1993           2     1     6     1     1     0     0    10       21    24
 3 1994           7     0     4     5     1     1     0     7       25    23
 4 1995           7     1    15     0     1     1     0    12       37    22
 5 1996           5     1     4     1     0     0     1    17       29    21
 6 1997          15     3    10     4     6     0     0     9       47    20
 7 1998          16     3    11    12     3     1     1     4       51    19
 8 1999          23     6     9    13     2     0     0    10       63    18
 9 2000          17     4    25    14     3     2     0    18       83    17
10 2001          20     3    27    24    13     0     1    15      103    16
# … with 16 more rows
…
