Anthea_question_1.utf8.md
…
# A tibble: 1 x 1
  care_type_desc                          
  <chr>                                   
1 Other care (Acute) inc Qualified Newborn

We would find that the most frequent care type was Other care (Acute) inc Qualified Newborn. So, we could actually filter by that:

cardiac_diagnosis %>%
  distinct(admission_id, care_type_desc, sex_desc) %>%
  filter( care_type_desc == 'Other care (Acute) inc Qualified Newborn' )

# A tibble: 10,669 x 3
   admission_id care_type_desc                           sex_desc
          <dbl> <chr>                                    <chr>   
 1     21000156 Other care (Acute) inc Qualified Newborn Female  
 2     21000190 Other care (Acute) inc Qualified Newborn Female  
 3     21000320 Other care (Acute) inc Qualified Newborn Male    
 4     21000421 Other care (Acute) inc Qualified Newborn Male    
 5     21001608 Other care (Acute) inc Qualified Newborn Male    
 6     21001622 Other care (Acute) inc Qualified Newborn Female  
 7     21001661 Other care (Acute) inc Qualified Newborn Male    
 8     21001835 Other care (Acute) inc Qualified Newborn Male    
 9     21001981 Other care (Acute) inc Qualified Newborn Male    
10     21002022 Other care (Acute) inc Qualified Newborn Female  
# … with 10,659 more rows
…
most_frequent_care_type

# A tibble: 1 x 2
  care_type_desc                               n
  <chr>                                    <int>
1 Other care (Acute) inc Qualified Newborn 10669

Then, we inner_join cardiac_diagnosis with this.

cardiac_diagnosis %>%
  inner_join( most_frequent_care_type )

Joining, by = "care_type_desc"

# A tibble: 10,736 x 11
   diag_code admission_id age_years   los sameday_id drg   sex_desc
   <chr>            <dbl>     <dbl> <dbl> <chr>      <chr> <chr>   
 1 I214          21000156        66     1 N          F10B  Female  
 2 I214          21000190        69     4 N          F10A  Female  
 3 I214          21000320        89     2 N          F41A  Male    
 4 I214          21000421        73     3 N          F41B  Male    
 5 I214          21001608        61    35 N          H06A  Male    
 6 I214          21001622        75     3 N          F41A  Female  
 7 I214          21001661        57     9 N          F06A  Male    
 8 I212          21001835        55     8 N          F10A  Male    
 9 I214          21001981        66     2 N          F10B  Male    
10 I214          21002022        84     7 N          F76A  Female  
# … with 10,726 more rows, and 4 more variables: diag_short_desc <chr>,
#   sep_mode_desc <chr>, care_type_desc <chr>, n <int>
…
