Question 4 - Costs
…
library("RPostgreSQL")
con <- dbConnect(dbDriver("PostgreSQL"), 
                 dbname   = 'vaed_sample',
                  host = "himsql7.latrobe.edu.au", port = 5432,
                 user = "dewollershei-test", password = "healthGuru")

young_men_costs <- dbGetQuery( con, query )   %>% as.tibble() 
#
young_men_costs

# A tibble: 596 x 50
   drg   admission_id sex_id age_years age_mths age_days   los sameday_id weight
   <chr>        <int>  <int>     <int>    <int>    <int> <int> <chr>       <int>
 1 T63Z      21011956      1         1     -999       NA     1 N              NA
 2 P67D      21015687      1         0        0        0     2 N            2960
 3 Y62B      21016252      1         1     -999       NA     1 Y              NA
 4 M05Z      21018993      1         7       NA       NA     1 Y              NA
 5 P67D      21020831      1         0        0        0     2 N            2630
 6 P64Z      21022020      1         0        0        0    26 N            1450
 7 P67D      21022024      1         0        0        0     2 N            4095
 8 P67D      21025415      1         0        0        0     2 N            3600
 9 U60Z      21027405      1         0        9      274     1 Y            9500
10 B67C      21037045      1         5       NA       NA     1 Y              NA
# … with 586 more rows, and 41 more variables: adm_source_id <chr>,
#   adm_type_id <chr>, care_type_id <chr>, sep_mode_id <chr>,
#   drg_description <chr>, cost_weight <dbl>, standard_error <dbl>,
#   number_of_seps <dbl>, number_of_days <int>, avg_los_daya <dbl>,
#   avg_cost_per_drg_total <dbl>, avg_cost_per_drg_direct <dbl>,
#   avg_cost_perdrg_ohead <dbl>, acc_per_drg_ward_medical_direct <dbl>,
#   acc_per_drg_ohead <dbl>, acc_per_drg_ward_nursing_direct <dbl>,
#   acc_per_drg_ward_nursing_ohead <dbl>,
#   acc_per_drg_non_clinical_salaries <dbl>,
…
