Question 1 - Debugging Pipes
…
Date

8469db0

Dennis Wollersheim

2020-05-28

The way to solve it is go through the results, step by step. In Rstudio, you can highlight the chunks you want to run, and press CTRL-Enter

First line

cardiac_procedures 

# A tibble: 9,087 x 11
   procedure_code admission_id age_years   los sameday_id drg   sex_desc
            <dbl>        <dbl>     <dbl> <dbl> <chr>      <chr> <chr>   
 1        3825600     21019781        62    11 N          F40A  Male    
 2        3825600     21159692        80     2 N          F17A  Female  
 3        3825600     21356305        83     4 N          F12B  Female  
 4        3825600     21380943        69    15 N          F09A  Male    
 5        3825600     21389939        69    32 N          A06B  Male    
 6        3825600     21513018        77     7 N          F12A  Male    
 7        3825600     21532997        77    15 N          F03A  Male    
 8        3825600     21602667        58     1 Y          F41A  Male    
 9        3825600     21631075        90     7 N          F10B  Male    
10        3825600     21814103        79     5 N          F17A  Male    
# … with 9,077 more rows, and 4 more variables: procedure_short_desc <chr>,
#   block_desc <chr>, sep_mode_desc <chr>, care_type_desc <chr>

First two lines

cardiac_procedures %>%
  distinct(admission_id, sex_desc, sep_mode_desc) 

# A tibble: 5,681 x 3
   admission_id sex_desc sep_mode_desc                                          
          <dbl> <chr>    <chr>                                                  
 1     21019781 Male     Separation to private residence/accommodation          
 2     21159692 Female   Separation to private residence/accommodation          
 3     21356305 Female   Separation to private residence/accommodation          
 4     21380943 Male     Separation and transfer to acute hospital/extended care
 5     21389939 Male     Separation and transfer to acute hospital/extended care
 6     21513018 Male     Separation and transfer to aged care residential facil…
 7     21532997 Male     Separation to private residence/accommodation          
 8     21602667 Male     Death                                                  
 9     21631075 Male     Separation to private residence/accommodation          
10     21814103 Male     Separation to private residence/accommodation          
# … with 5,671 more rows
…
