Tutorial 3 - Loading Data
…
library( janitor )

avg_los <- 
  myhospitals_average_length_of_stay_data  %>%
  clean_names () %>%
  remove_empty ('cols')

When readxl imported the data, the numeric columns were imported as type character. If the data is character, we cannot plot it. Why are these columns character?

avg_los %>%
  count( total_number_of_stays, sort=TRUE)

# A tibble: 1,041 x 2
   total_number_of_stays     n
   <chr>                 <int>
 1 <5                     7009
 2 5                       928
 3 6                       789
 4 8                       667
 5 7                       630
 6 9                       524
 7 10                      510
 8 12                      442
 9 11                      438
10 13                      399
# … with 1,031 more rows
…
library("RPostgreSQL")
con <- dbConnect(dbDriver("PostgreSQL"), 
                 dbname   = 'vaed_sample',
                  host = "himsql7.latrobe.edu.au", port = 5432,
                 user = "dewollershei-test", password = "healthGuru")

young_men <- dbGetQuery( con, query ) %>% as.tibble() 
#
young_men

# A tibble: 596 x 14
   admission_id sex_id age_years age_mths age_days   los sameday_id weight
          <int>  <int>     <int>    <int>    <int> <int> <chr>       <int>
 1     21011956      1         1     -999       NA     1 N              NA
 2     21015687      1         0        0        0     2 N            2960
 3     21016252      1         1     -999       NA     1 Y              NA
 4     21018993      1         7       NA       NA     1 Y              NA
 5     21020831      1         0        0        0     2 N            2630
 6     21022020      1         0        0        0    26 N            1450
 7     21022024      1         0        0        0     2 N            4095
 8     21025415      1         0        0        0     2 N            3600
 9     21027405      1         0        9      274     1 Y            9500
10     21037045      1         5       NA       NA     1 Y              NA
# … with 586 more rows, and 6 more variables: adm_source_id <chr>,
#   adm_type_id <chr>, care_type_id <chr>, sep_mode_id <chr>, drg <chr>,
#   postcode_id <dbl>
…
