Tutorial 2
…
cols(
  procedure_code = col_double(),
  admission_id = col_double(),
  age_years = col_double(),
  los = col_double(),
  sameday_id = col_character(),
  drg = col_character(),
  sex_desc = col_character(),
  procedure_short_desc = col_character(),
  block_desc = col_character(),
  sep_mode_desc = col_character(),
  care_type_desc = col_character()
)

# A tibble: 9,087 x 11
   procedure_code admission_id age_years   los sameday_id drg   sex_desc
            <dbl>        <dbl>     <dbl> <dbl> <chr>      <chr> <chr>   
 1        3825600     21019781        62    11 N          F40A  Male    
 2        3825600     21159692        80     2 N          F17A  Female  
 3        3825600     21356305        83     4 N          F12B  Female  
 4        3825600     21380943        69    15 N          F09A  Male    
 5        3825600     21389939        69    32 N          A06B  Male    
 6        3825600     21513018        77     7 N          F12A  Male    
 7        3825600     21532997        77    15 N          F03A  Male    
 8        3825600     21602667        58     1 Y          F41A  Male    
 9        3825600     21631075        90     7 N          F10B  Male    
10        3825600     21814103        79     5 N          F17A  Male    
# … with 9,077 more rows, and 4 more variables: procedure_short_desc <chr>,
#   block_desc <chr>, sep_mode_desc <chr>, care_type_desc <chr>
…
select and filter functions

There are many functions that can be used in a pipe. Some useful ones that you will recognise are select and filter. select is for selecting columns, whereas filter selects out specific rows, just like the where clause in SQL.

cardiac_procedures %>%
  select( drg, sex_desc )

# A tibble: 9,087 x 2
   drg   sex_desc
   <chr> <chr>   
 1 F40A  Male    
 2 F17A  Female  
 3 F12B  Female  
 4 F09A  Male    
 5 A06B  Male    
 6 F12A  Male    
 7 F03A  Male    
 8 F41A  Male    
 9 F10B  Male    
10 F17A  Male    
# … with 9,077 more rows

cardiac_procedures %>%
  filter( sex_desc == 'Female')

# A tibble: 3,445 x 11
   procedure_code admission_id age_years   los sameday_id drg   sex_desc
            <dbl>        <dbl>     <dbl> <dbl> <chr>      <chr> <chr>   
 1        3825600     21159692        80     2 N          F17A  Female  
 2        3825600     21356305        83     4 N          F12B  Female  
 3        3825600     21881322        76    21 N          F01A  Female  
 4        3825600     22293633        79     1 N          F15B  Female  
 5        3825600     22318182        77     1 N          F15B  Female  
 6        3825601     21077136        79     4 N          F76A  Female  
 7        3825601     21088080        73     6 N          F12A  Female  
 8        3825601     21145398        73     9 N          F12A  Female  
 9        3825601     21154733        14     7 N          F17A  Female  
10        3825601     21159692        80     2 N          F17A  Female  
# … with 3,435 more rows, and 4 more variables: procedure_short_desc <chr>,
#   block_desc <chr>, sep_mode_desc <chr>, care_type_desc <chr>
…
How do you select the diagnosis description?

How would you see the ages and lengths of stay of men who had a cardiac procedure?

How many different seperation modes are there? How many drg’s?

count and head functions

The count function is a two step function. It groups all unique values together (like distinct), summarising the result by counting. The equivalent in SQL would be COUNT(*) and GROUP BY.

cardiac_procedures %>%
  count( procedure_short_desc )

# A tibble: 51 x 2
   procedure_short_desc                         n
   <chr>                                    <int>
 1 Adjust cardiac defibrillator generator      15
 2 Adjust epicardial elec card pacemaker        3
 3 Adjust L ventrl elec defib thmy stmy sbx     1
 4 Adjust trnsven elec card defibrillator      17
 5 Adjust trnsven elec for card pacemaker      51
 6 Adjust ventrl elec pcmkr thmy stmy sbx       2
 7 Adjustment cardiac pacemaker generator      14
 8 Ins of patches for cardiac defibrillator     2
 9 Ins perm epicardial elec pcmkr sbx appr      1
10 Ins perm epicardl elec defib stmy thmy       8
# … with 41 more rows

If we add sort = TRUE to count, the results are sorted in descending order.

cardiac_procedures %>%
  count( procedure_short_desc, sort = TRUE )

# A tibble: 51 x 2
   procedure_short_desc                         n
   <chr>                                    <int>
 1 Ins perm trnsven elec oth cham pcmkr      2346
 2 Insertion of cardiac pacemaker generator  2285
 3 Testing of other cardiac pacemaker        1118
 4 Replacement cardiac pacemaker generator    664
 5 Ins perm trnsven elec oth cham defib       490
 6 Insertion of cardiac defib generator       485
 7 Testing of cardiac defibrillator           428
 8 Replace cardiac defibrillator generator    322
 9 Test A-V seqtl rate respn / antchy pcmkr   190
10 Ins perm trnsven elec L ventrl pcmkr       128
# … with 41 more rows
…
