Tutorial 7 - Top N query
…
we want to get rid of records with the J189, because we want the other morbidities

dbGetQuery( con, query ) %>%
  as_tibble() %>%
  filter( diag_code != 'J189') %>%
  { . } -> morbidities

What are the morbidites that have an additional diagnosis of pneumonia

note, there are 1400 morbidities

morbidities %>%
  count( diag_short_desc, sort=TRUE)

# A tibble: 1,263 x 2
   diag_short_desc                           n
   <chr>                                 <int>
 1 COPD with acute lower resp infection   1112
 2 Care inv use of rehab procedure unsp    964
 3 Congestive heart failure                695
 4 Sepsis, unspecified                     411
 5 Acute subendocardial MI                 271
 6 Atrial fibrillation and flutter unsp    160
 7 Asthma unspecified                      147
 8 Delirium unspecified                    144
 9 Acute kidney failure unspecified        131
10 Urinary tract infection site not spec   127
# … with 1,253 more rows
…
