Tutorial 5 - VAED
…
Next, we compute the gender and 10 year age group population , and standardise the column names using rename.

population_summary <- 
  population %>%
  mutate( ten_year_age_group = cut( age, breaks=10 * (0:12 ))) %>%
  group_by(  gender, ten_year_age_group  ) %>% 
  summarise( population = sum( population )) %>%
  rename( sex_desc =  gender ) 

population_summary 

# A tibble: 22 x 3
# Groups:   sex_desc [2]
   sex_desc ten_year_age_group population
   <chr>    <fct>                   <dbl>
 1 Female   (0,10]                 357321
 2 Female   (10,20]                338509
 3 Female   (20,30]                431151
 4 Female   (30,40]                418798
 5 Female   (40,50]                409483
 6 Female   (50,60]                371724
 7 Female   (60,70]                297490
 8 Female   (70,80]                186630
 9 Female   (80,90]                112938
10 Female   (90,100]                27279
# … with 12 more rows
…
