Tutorial 4 - Statistics
…
 FROM mbs m
 JOIN mbs_desc_latest d USING (item)
 JOIN patient p USING (pin)
 where item in  ('07647', '07652'); 
 "
con <- dbConnect(dbDriver("PostgreSQL"), 
                 dbname   = 'pbs',
                 host = "himsql7.latrobe.edu.au", port = 5432,
                 user = "dewollershei-test", password = "healthGuru")
#
fracture <- dbGetQuery( con, query ) %>% as_tibble() 
#
fracture

# A tibble: 3,206 x 7
   feecharged schedfee item  service_date description           sex     yob
        <dbl>    <dbl> <chr> <date>       <chr>                 <chr> <int>
 1      11200    12200 07647 1984-01-30   Ankle (Pott's fractu… M      1954
 2      13400    14400 07647 1986-09-24   Ankle (Pott's fractu… F      1969
 3      14000    16000 07647 1988-09-22   Ankle (Pott's fractu… F      1923
 4       7400     8400 07647 1990-06-14   Ankle (Pott's fractu… F      1938
 5      15000    17600 07647 1991-03-11   Ankle (Pott's fractu… M      1981
 6      21500    17200 07652 1984-05-26   Ankle (Pott's fractu… F      1927
 7      28936    17200 07652 1984-03-30   Ankle (Pott's fractu… M      1956
 8      19400    19400 07652 1985-10-10   Ankle (Pott's fractu… F      1919
 9       6645     7275 07652 1986-12-04   Ankle (Pott's fractu… F      1924
10      22455    21825 07652 1986-12-04   Ankle (Pott's fractu… F      1924
# … with 3,196 more rows
…
