Tutorial 6 - Machine Learning
…
Visualising a prediction model

There are various ways to visualise the results. THe first is to look at what predictions would be made for the ‘held back’ training data. predict does this, by adding a columm with the predicted did_die value, called predicted_did_die. This contains the probability that this prediction will be Y.

predictions <- 
  predict(models, newdata=split_data$test, outcome_groups=T) 

predictions

# A tibble: 12,412 x 10
   did_die predicted_did_d… predicted_group age_years   los sameday_id drg  
 * <fct>              <dbl> <fct>               <int> <int> <chr>      <chr>
 1 N                0.00787 N                       1     6 N          E62A 
 2 Y                0.719   Y                      61    35 N          H06A 
 3 Y                0.719   Y                      61    35 N          H06A 
 4 Y                0.719   Y                      61    35 N          H06A 
 5 Y                0.719   Y                      61    35 N          H06A 
 6 Y                0.157   N                      75     2 N          E62A 
 7 Y                0.157   N                      75     2 N          E62A 
 8 Y                0.173   N                      52    17 N          G02A 
 9 N                0.0802  N                      75    15 N          G03A 
10 N                0.0802  N                      75    15 N          G03A 
# … with 12,402 more rows, and 3 more variables: sex_desc <chr>,
#   care_type_desc <chr>, diag_status <chr>
…
